de10nano/hwdata.vcd
$comment
Copyright (C) 1991-2016 Altera Corporation. All rights reserved.
Your use of Altera Corporation's design tools, logic functions 
and other software and tools, and its AMPP partner logic 
functions, and any output files from any of the foregoing 
(including device programming or simulation files), and any 
associated documentation or information are expressly subject 
to the terms and conditions of the Altera Program License 
Subscription Agreement, the Altera Quartus Prime License Agreement,
the Altera MegaCore Function License Agreement, or other 
applicable license agreement, including, without limitation, 
that your use is for the sole purpose of programming logic 
devices manufactured by Altera and sold by Altera or its 
authorized distributors.  Please refer to the applicable 
agreement for further details.
$end

$date 
  03/17/2020 15:13:01 
$end
$version 
 QUARTUS_VCD_EXPORT 1.0 
$end
$timescale
  1 ps
$end
$scope module u0 $end
$scope module multiplier_0 $end
$var reg 1 ! streamA_ready $end
$var reg 1 " streamA_valid $end
$var reg 1 # streamA_payload[15] $end
$var reg 1 $ streamA_payload[14] $end
$var reg 1 % streamA_payload[13] $end
$var reg 1 & streamA_payload[12] $end
$var reg 1 ' streamA_payload[11] $end
$var reg 1 ( streamA_payload[10] $end
$var reg 1 ) streamA_payload[9] $end
$var reg 1 * streamA_payload[8] $end
$var reg 1 + streamA_payload[7] $end
$var reg 1 , streamA_payload[6] $end
$var reg 1 - streamA_payload[5] $end
$var reg 1 . streamA_payload[4] $end
$var reg 1 / streamA_payload[3] $end
$var reg 1 0 streamA_payload[2] $end
$var reg 1 1 streamA_payload[1] $end
$var reg 1 2 streamA_payload[0] $end
$var reg 1 3 streamB_ready $end
$var reg 1 4 streamB_valid $end
$var reg 1 5 streamB_payload[15] $end
$var reg 1 6 streamB_payload[14] $end
$var reg 1 7 streamB_payload[13] $end
$var reg 1 8 streamB_payload[12] $end
$var reg 1 9 streamB_payload[11] $end
$var reg 1 : streamB_payload[10] $end
$var reg 1 ; streamB_payload[9] $end
$var reg 1 < streamB_payload[8] $end
$var reg 1 = streamB_payload[7] $end
$var reg 1 > streamB_payload[6] $end
$var reg 1 ? streamB_payload[5] $end
$var reg 1 @ streamB_payload[4] $end
$var reg 1 A streamB_payload[3] $end
$var reg 1 B streamB_payload[2] $end
$var reg 1 C streamB_payload[1] $end
$var reg 1 D streamB_payload[0] $end
$var reg 1 E streamR_ready $end
$var reg 1 F streamR_valid $end
$var reg 1 G streamR_payload[31] $end
$var reg 1 H streamR_payload[30] $end
$var reg 1 I streamR_payload[29] $end
$var reg 1 J streamR_payload[28] $end
$var reg 1 K streamR_payload[27] $end
$var reg 1 L streamR_payload[26] $end
$var reg 1 M streamR_payload[25] $end
$var reg 1 N streamR_payload[24] $end
$var reg 1 O streamR_payload[23] $end
$var reg 1 P streamR_payload[22] $end
$var reg 1 Q streamR_payload[21] $end
$var reg 1 R streamR_payload[20] $end
$var reg 1 S streamR_payload[19] $end
$var reg 1 T streamR_payload[18] $end
$var reg 1 U streamR_payload[17] $end
$var reg 1 V streamR_payload[16] $end
$var reg 1 W streamR_payload[15] $end
$var reg 1 X streamR_payload[14] $end
$var reg 1 Y streamR_payload[13] $end
$var reg 1 Z streamR_payload[12] $end
$var reg 1 [ streamR_payload[11] $end
$var reg 1 \ streamR_payload[10] $end
$var reg 1 ] streamR_payload[9] $end
$var reg 1 ^ streamR_payload[8] $end
$var reg 1 _ streamR_payload[7] $end
$var reg 1 ` streamR_payload[6] $end
$var reg 1 a streamR_payload[5] $end
$var reg 1 b streamR_payload[4] $end
$var reg 1 c streamR_payload[3] $end
$var reg 1 d streamR_payload[2] $end
$var reg 1 e streamR_payload[1] $end
$var reg 1 f streamR_payload[0] $end
$scope module pe_1_ $end
$var reg 1 g counters_ai_value[2] $end
$var reg 1 h counters_ai_value[1] $end
$var reg 1 i counters_ai_value[0] $end
$var reg 1 j counters_aj_value[2] $end
$var reg 1 k counters_aj_value[1] $end
$var reg 1 l counters_aj_value[0] $end
$var reg 1 m counters_bi_value[2] $end
$var reg 1 n counters_bi_value[1] $end
$var reg 1 o counters_bi_value[0] $end
$var reg 1 p counters_bj_value[2] $end
$var reg 1 q counters_bj_value[1] $end
$var reg 1 r counters_bj_value[0] $end
$var reg 1 s io_last $end
$var reg 1 t counters_lastA $end
$var reg 1 u counters_lastB $end
$upscope $end
$upscope $end
$scope module pll_0 $end
$var reg 1 v outclk_0 $end
$upscope $end
$upscope $end
$enddefinitions $end
#0
$dumpvars
X!
X"
X#
X$
X%
X&
X'
X(
X)
X*
X+
X,
X-
X.
X/
X0
X1
X2
X3
X4
X5
X6
X7
X8
X9
X:
X;
X<
X=
X>
X?
X@
XA
XB
XC
XD
XE
XF
XG
XH
XI
XJ
XK
XL
XM
XN
XO
XP
XQ
XR
XS
XT
XU
XV
XW
XX
XY
XZ
X[
X\
X]
X^
X_
X`
Xa
Xb
Xc
Xd
Xe
Xf
Xg
Xh
Xi
Xj
Xk
Xl
Xm
Xn
Xo
Xp
Xq
Xr
Xs
Xt
Xu
0v
$end
#5000
$comment Sample -32 (Start) $end
1!
0"
0#
0$
0%
0&
0'
0(
0)
0*
0+
0,
0-
0.
0/
00
01
02
13
04
05
06
07
08
09
0:
0;
0<
0=
0>
0?
0@
0A
0B
0C
0D
1E
0F
0G
0H
0I
0J
0K
0L
0M
0N
0O
0P
0Q
0R
0S
0T
0U
0V
0W
0X
0Y
0Z
0[
0\
0]
0^
0_
0`
0a
0b
0c
0d
0e
0f
0g
0h
0i
0j
0k
0l
0m
0n
0o
0p
0q
0r
0s
0t
0u
1v
#10000
0v
#15000
1v
#20000
0v
#25000
1v
#30000
0v
#35000
1v
#40000
0v
#45000
1v
#50000
0v
#55000
1v
#60000
0v
#65000
1v
#70000
0v
#75000
1v
#80000
0v
#85000
1v
#90000
0v
#95000
1v
#100000
0v
#105000
1v
#110000
0v
#115000
1v
#120000
0v
#125000
1v
#130000
0v
#135000
1v
#140000
0v
#145000
1v
#150000
0v
#155000
1v
#160000
0v
#165000
1v
#170000
0v
#175000
1v
#180000
0v
#185000
1v
#190000
0v
#195000
1v
#200000
0v
#205000
1v
#210000
0v
#215000
1v
#220000
0v
#225000
1v
#230000
0v
#235000
1v
#240000
0v
#245000
1v
#250000
0v
#255000
1v
#260000
0v
#265000
1v
#270000
0v
#275000
1v
#280000
0v
#285000
1v
#290000
0v
#295000
1v
#300000
0v
#305000
1v
#310000
0v
#315000
1v
#320000
0v
#325000
$comment Sample 0 (Trigger) $end
1"
1v
#330000
0v
#335000
1*
1l
1v
#340000
0v
#345000
1)
0*
1k
0l
1v
#350000
0v
#355000
1*
1l
1v
#360000
0v
#365000
1(
0)
0*
1j
0k
0l
1v
#370000
0v
#375000
1*
1i
0j
1v
#380000
0v
#385000
1)
0*
1l
1v
#390000
0v
#395000
1*
1k
0l
1v
#400000
0v
#405000
0"
1l
1v
#410000
0v
#415000
1v
#420000
0v
#425000
1v
#430000
0v
#435000
1"
1'
0(
0)
0*
1v
#440000
0v
#445000
1*
1j
0k
0l
1v
#450000
0v
#455000
1)
0*
1h
0i
0j
1v
#460000
0v
#465000
1*
1l
1v
#470000
0v
#475000
1(
0)
0*
1k
0l
1v
#480000
0v
#485000
1*
1l
1v
#490000
0v
#495000
1)
0*
1j
0k
0l
1v
#500000
0v
#505000
1*
1i
0j
1v
#510000
0v
#515000
0"
1l
1v
#520000
0v
#525000
1v
#530000
0v
#535000
1v
#540000
0v
#545000
1"
1&
0'
0(
0)
0*
1v
#550000
0v
#555000
1*
1k
0l
1v
#560000
0v
#565000
1)
0*
1l
1v
#570000
0v
#575000
1*
1j
0k
0l
1v
#580000
0v
#585000
1(
0)
0*
1g
0h
0i
0j
1v
#590000
0v
#595000
1*
1l
1v
#600000
0v
#605000
1)
0*
1k
0l
1v
#610000
0v
#615000
1*
1l
1v
#620000
0v
#625000
0"
1j
0k
0l
1v
#630000
0v
#635000
1v
#640000
0v
#645000
1"
1'
0(
0)
0*
1v
#650000
0v
#655000
0"
0g
0j
1t
1v
